{
  "driver"    : "mysql",
  "host"      : "localhost",
  "database"  : "unicornOverlord",
  "username"  : "root",
  "password"  : "php",
  "charset"   : "utf8",
  "collation" : "utf8_unicode_ci",
  "prefix"    : ""
}